07/29/2016 08:16:49: Devices initialized, Ready
07/29/2016 08:16:57: Devices initialized, Ready
07/29/2016 08:16:57: Drive selected, F:\; DeviceNotBlank
07/29/2016 08:17:00: Backup started
07/29/2016 08:40:57: Backup complete
07/29/2016 08:41:06: Exit application
07/31/2016 05:22:45: Devices initialized, Ready
07/31/2016 05:22:47: Devices initialized, Ready
07/31/2016 05:22:47: Drive selected, F:\; DeviceNotBlank
07/31/2016 05:22:51: Devices initialized, Ready
07/31/2016 05:22:51: Drive selected, F:\; DeviceNotBlank
07/31/2016 05:22:55: Backup started
07/31/2016 05:47:37: Backup complete
07/31/2016 05:48:16: Exit application
