<?xml version="1.0" encoding="utf-8"?>
<!-- Generator: Adobe Illustrator 16.0.0, SVG Export Plug-In . SVG Version: 6.00 Build 0)  -->
<!DOCTYPE svg PUBLIC "-//W3C//DTD SVG 1.1//EN" "http://www.w3.org/Graphics/SVG/1.1/DTD/svg11.dtd">
<svg version="1.1" id="Layer_1" xmlns="http://www.w3.org/2000/svg" xmlns:xlink="http://www.w3.org/1999/xlink" x="0px" y="0px"
	 width="40px" height="40px" viewBox="0 0 40 40" enable-background="new 0 0 40 40" xml:space="preserve">
<path fill="#FFFFFF" d="M30.117,13.344H9.883c-0.444,0-0.709,0.266-0.709,0.71v11.892c0,0.443,0.266,0.71,0.709,0.71h20.234
	c0.442,0,0.709-0.267,0.709-0.71V14.055C30.826,13.61,30.56,13.344,30.117,13.344z M29.041,14.409l-9.218,7.276l-9.056-7.276H29.041
	z M29.407,25.591H10.594c-0.223,0-0.355-0.133-0.355-0.355v-9.914l9.584,7.607l9.939-7.888v10.194
	C29.762,25.458,29.628,25.591,29.407,25.591z"/>
</svg>
